{
  "name": "f",
  "css_prefix_text": "icon-",
  "css_use_suffix": false,
  "hinting": true,
  "units_per_em": 1000,
  "ascent": 850,
  "glyphs": [
    {
      "uid": "9dd9e835aebe1060ba7190ad2b2ed951",
      "css": "search",
      "code": 59392,
      "src": "fontawesome"
    },
    {
      "uid": "30b79160618d99ce798e4bd11cafe3fe",
      "css": "food",
      "code": 61685,
      "src": "fontawesome"
    },
    {
      "uid": "d84a06c5ce6da9ebdc9b0a5cb94db4c4",
      "css": "heartbeat",
      "code": 61982,
      "src": "fontawesome"
    },
    {
      "uid": "b714be5a812a474811604f700dfc87ce",
      "css": "left-open",
      "code": 61447,
      "src": "mfglabs"
    },
    {
      "uid": "37910a1398001a5ccb541cb2a253a2c7",
      "css": "right-open",
      "code": 61446,
      "src": "mfglabs"
    },
    {
      "uid": "de3978220965d0d1b1cbe671a5a57f9a",
      "css": "lodging",
      "code": 59428,
      "src": "maki"
    },
    {
      "uid": "981c9f3d44fd4fd6b37c0b5a981334ce",
      "css": "clock",
      "code": 59393,
      "src": "mfglabs"
    },
    {
      "uid": "8c0ffa714cecbf5144e022d9c3df4a1f",
      "css": "bank",
      "code": 61852,
      "src": "fontawesome"
    },
    {
      "uid": "4c1ef492f1d2c39a2250ae457cee2a6e",
      "css": "instagram",
      "code": 61805,
      "src": "fontawesome"
    },
    {
      "uid": "6f7586c6f99798c3c1de6123d1f6cfa9",
      "css": "facebook-1",
      "code": 59394,
      "src": "zocial"
    },
    {
      "uid": "627abcdb627cb1789e009c08e2678ef9",
      "css": "twitter-1",
      "code": 61593,
      "src": "fontawesome"
    },
    {
      "uid": "9d3e9faf68fd4e12def853f0d4e1173b",
      "css": "whatsapp",
      "code": 62002,
      "src": "fontawesome"
    },
    {
      "uid": "f3dc2d6d8fe9cf9ebff84dc260888cdf",
      "css": "heart-empty",
      "code": 59395,
      "src": "fontawesome"
    },
    {
      "uid": "d73eceadda1f594cec0536087539afbf",
      "css": "heart",
      "code": 59396,
      "src": "fontawesome"
    },
    {
      "uid": "1e394b6cd5e0da3e10d8e4f3fe355960",
      "css": "adult",
      "code": 59397,
      "src": "elusive"
    },
    {
      "uid": "e5fdc4247f1f9b3bf98d20a954e1327c",
      "css": "user-male",
      "code": 61538,
      "src": "mfglabs"
    },
    {
      "uid": "8663320a860b00f26e94d3d15c9ba99a",
      "css": "clock-1",
      "code": 59398,
      "src": "entypo"
    },
    {
      "uid": "b99d736cef489a3150ba8aac7c4e8403",
      "css": "clock-2",
      "code": 59399,
      "src": "iconic"
    },
    {
      "uid": "d58dc0a0927a7dea2992f615f2fbf400",
      "css": "wallet",
      "code": 59400,
      "src": "linecons"
    },
    {
      "uid": "98c63f6b98c543b52d4c43bcd486d28f",
      "css": "flash",
      "code": 59401,
      "src": "entypo"
    }
  ]
}